<svg width="14" height="14" viewBox="0 0 14 14" fill="none" xmlns="http://www.w3.org/2000/svg">
<path d="M12.6297 5.51844H8.48152V1.37029C8.48152 0.555474 7.81486 0.333252 7.00004 0.333252C6.18523 0.333252 5.51856 0.555474 5.51856 1.37029V5.51844H1.37041C0.555596 5.51844 0.333374 6.1851 0.333374 6.99992C0.333374 7.81473 0.555596 8.4814 1.37041 8.4814H5.51856V12.6295C5.51856 13.4444 6.18523 13.6666 7.00004 13.6666C7.81486 13.6666 8.48152 13.4444 8.48152 12.6295V8.4814H12.6297C13.4445 8.4814 13.6667 7.81473 13.6667 6.99992C13.6667 6.1851 13.4445 5.51844 12.6297 5.51844Z" fill="#A90061"/>
</svg>
