<svg width="16" height="18" viewBox="0 0 16 18" fill="none" xmlns="http://www.w3.org/2000/svg">
<path d="M4.76283 1.8825C4.4895 2.30188 4.46083 2.9475 4.46342 3.55643C4.46592 4.14086 4.45158 4.69154 4.50333 4.97578C4.10333 4.95639 3.93592 5.27824 3.99758 6.36839C4.05233 7.33476 4.43708 7.54336 4.66667 7.67617C4.86933 8.65341 5.25967 9.57891 5.95108 10.2788L5.95258 10.2686C5.90992 10.5227 5.85608 10.7928 5.78658 11.0612C4.83475 11.3963 2.49958 12.269 1.81592 12.9921C0.954083 13.9029 0.5 17.3333 0.5 17.3333H15.5C15.5 17.3333 15.0459 13.9029 14.1841 12.9921C13.5017 12.2704 11.174 11.3997 10.2188 11.0631C10.14 10.797 10.0813 10.5299 10.0367 10.2788C10.7282 9.57891 11.1307 8.65341 11.3333 7.67617C11.5629 7.54336 11.9355 7.33476 11.9902 6.36839C12.0519 5.27824 11.8845 4.95639 11.4845 4.97578C11.5359 4.69363 11.5401 4.15766 11.5361 3.58267C11.5317 2.97483 11.5032 2.32345 11.2583 1.8825C10.9542 1.33475 10.5269 1.01349 9.69358 1.21148C8.96408 0.859715 8.19567 0.481789 6.90992 0.76703C5.46092 1.08846 4.94908 1.59685 4.76283 1.8825Z" fill="#333333"/>
</svg>
