<svg width="14" height="8" viewBox="0 0 14 8" fill="none" xmlns="http://www.w3.org/2000/svg">
<path d="M13.1569 0.558334C12.6008 0.0091331 11.8778 -0.210547 11.3217 0.393574L6.98392 4.62242L2.70177 0.338654C2.14565 -0.210547 1.42269 -0.0457869 0.866568 0.503414C0.310445 1.05261 0.0879961 1.76657 0.699731 2.31577L6.03851 7.5881C6.59464 8.1373 7.48443 8.1373 8.04056 7.5881L13.3237 2.3707C13.8798 1.82149 13.713 1.10753 13.1569 0.558334Z" fill="#333333"/>
</svg>
