<svg width="25" height="24" viewBox="0 0 25 24" fill="none" xmlns="http://www.w3.org/2000/svg">
<path d="M21.9682 4.17386C21.8152 3.27168 21.116 2.58529 20.1967 2.43488C17.5392 2 13.11 2 12.2243 2C11.3385 2 6.90931 2 4.25185 2.43488C3.33258 2.58529 2.63336 3.27168 2.48036 4.17386C2.03735 6.78256 2.03735 11.1305 2.03735 12C2.03735 12.8695 2.03735 17.2174 2.48036 19.8261C2.63336 20.7283 3.33258 21.4147 4.25185 21.5651C6.90931 22 11.3385 22 12.2243 22C13.11 22 17.5392 22 20.1967 21.5651C21.116 21.4147 21.8152 20.7283 21.9682 19.8261C22.4112 17.2174 22.4112 12.8695 22.4112 12C22.4112 9.38999 22.4112 6.78256 21.9682 4.17386ZM13.5617 19.0022H10.6352L10.8868 12.8753V9.37419H13.5617V19.0022ZM12.2345 7.62365C11.2351 7.62365 10.6639 7.07512 10.6639 6.07311C10.6639 5.222 11.1942 4.56021 12.2141 4.56021C13.2134 4.56021 13.7846 5.08953 13.7846 6.07311C13.7846 6.94282 13.2543 7.62365 12.2345 7.62365Z" fill="#007BC7"/>
<path d="M13.5616 19.002H10.635L10.8867 12.8751V9.37404H13.5616V19.002ZM12.2343 7.6235C11.235 7.6235 10.6638 7.07497 10.6638 6.07296C10.6638 5.22185 11.1941 4.56006 12.2139 4.56006C13.2133 4.56006 13.7845 5.08938 13.7845 6.07296C13.7845 6.94267 13.2542 7.6235 12.2343 7.6235Z" fill="white"/>
</svg>
