<svg width="25" height="24" viewBox="0 0 25 24" fill="none" xmlns="http://www.w3.org/2000/svg">
<path d="M22.192 18.5492L13.687 3.83552C13.0476 2.72149 11.4096 2.72149 10.7614 3.83552L2.25641 18.5492C1.62575 19.646 2.43159 21 3.71917 21H20.738C22.0168 21 22.8227 19.646 22.192 18.5492Z" fill="#FFB612"/>
<path d="M10.9451 16.6723C10.9451 16.2953 11.0502 15.9697 11.2604 15.7126C11.4706 15.4469 11.7859 15.3184 12.2151 15.3184C12.6356 15.3184 12.9597 15.4384 13.1786 15.6612C13.3976 15.8925 13.5115 16.2267 13.5115 16.6723C13.5115 17.0408 13.4064 17.3579 13.1961 17.6064C12.9859 17.8549 12.6706 17.9835 12.2414 17.9835C11.821 17.9835 11.4969 17.8721 11.2779 17.6493C11.0589 17.435 10.9451 17.1094 10.9451 16.6723ZM11.2166 7.87158L13.3888 7.7002L13.1961 12.4219V14.6757L11.2078 14.7185V7.87158H11.2166Z" fill="#333333"/>
</svg>
